{
	"id": "4628268b-e356-4f35-8d8e-68b8c475ce86",
	"name": "Core-Integrations-Service-E2E-PY-Payment",
	"values": [
		{
			"key": "client_id",
			"value": "WqAAEv9XmaITHperHFIFHmrnSSCp4VXB2oppGes1LFIEdW7p",
			"type": "any",
			"enabled": true
		},
		{
			"key": "client_secret",
			"value": "7k0GscbMotmBZ9MThwbqrjsATAqg9sXGQzMOnVMvj1TjgTEqLECTSA6V459lvywZ",
			"type": "any",
			"enabled": true
		},
		{
			"key": "my_grant_type",
			"value": "client_credentials",
			"type": "default",
			"enabled": true
		},
		{
			"key": "Oauth2_URL",
			"value": "https://apigee-e2e.unicomer.com/oauth2/token",
			"type": "default",
			"enabled": true
		},
		{
			"key": "Main_URL",
			"value": "https://apigee-e2e.unicomer.com",
			"type": "default",
			"enabled": true
		},
		{
			"key": "env",
			"value": "E2E",
			"type": "default",
			"enabled": true
		},
		{
			"key": "countryISOCode",
			"value": "PY",
			"type": "default",
			"enabled": true
		},
		{
			"key": "productType",
			"value": "CL",
			"type": "default",
			"enabled": true
		},
		{
			"key": "offset",
			"value": "-03:00",
			"type": "default",
			"enabled": true
		},
		{
			"key": "documentType",
			"value": "CI",
			"type": "default",
			"enabled": true
		},
		{
			"key": "X-brand",
			"value": "UNICOMER",
			"type": "default",
			"enabled": true
		},
		{
			"key": "X-storeRef",
			"value": "Electrofacil",
			"type": "default",
			"enabled": true
		},
		{
			"key": "X-processRef",
			"value": "Shopping car",
			"type": "default",
			"enabled": true
		},
		{
			"key": "X-channelRef",
			"value": "POS",
			"type": "default",
			"enabled": true
		},
		{
			"key": "X-consumerRef",
			"value": "Base",
			"type": "default",
			"enabled": true
		},
		{
			"key": "X-typeProduct",
			"value": "2",
			"type": "default",
			"enabled": true
		},
		{
			"key": "X-Accept-Language",
			"value": "ES",
			"type": "default",
			"enabled": true
		},
		{
			"key": "firstName",
			"value": "Ronaldo",
			"type": "default",
			"enabled": true
		},
		{
			"key": "lastName",
			"value": "Zarza",
			"type": "default",
			"enabled": true
		},
		{
			"key": "secondLastName",
			"value": "Vega",
			"type": "default",
			"enabled": true
		},
		{
			"key": "customerTypeIdentifier",
			"value": "N",
			"type": "default",
			"enabled": true
		},
		{
			"key": "identificationId",
			"value": "5000492",
			"type": "any",
			"enabled": true
		},
		{
			"key": "personType",
			"value": "Individual",
			"type": "default",
			"enabled": true
		},
		{
			"key": "howLong",
			"value": "62",
			"type": "default",
			"enabled": true
		},
		{
			"key": "sourceIncomeText",
			"value": "No Documentado",
			"type": "default",
			"enabled": true
		},
		{
			"key": "processType",
			"value": "Linea credito consumo",
			"type": "default",
			"enabled": true
		},
		{
			"key": "occupation",
			"value": "Empleado de Restaurante/Espera/Bar/Tienda",
			"type": "default",
			"enabled": true
		},
		{
			"key": "totalIncome",
			"value": "21620203",
			"type": "default",
			"enabled": true
		},
		{
			"key": "entryDate",
			"value": "01122015",
			"type": "default",
			"enabled": true
		},
		{
			"key": "processSalesText",
			"value": "Cash Loan",
			"type": "default",
			"enabled": true
		},
		{
			"key": "district",
			"value": "35ed61c3-5f11-43b6-b776-fd65e65799d1",
			"type": "default",
			"enabled": true
		},
		{
			"key": "canton",
			"value": "07004392-58fe-4a73-8f82-33a1c5a5a70f",
			"type": "default",
			"enabled": true
		},
		{
			"key": "neighborhood",
			"value": "2ef0579b-4f2e-40a9-9a24-3f9d64a6a8e7",
			"type": "default",
			"enabled": true
		},
		{
			"key": "amount_to_pay",
			"value": "1000",
			"type": "default",
			"enabled": true
		},
		{
			"key": "transactionChannelId",
			"value": "cashCL",
			"type": "default",
			"enabled": true
		},
		{
			"key": "payMethod",
			"value": "PRONET_CASH",
			"type": "default",
			"enabled": true
		},
		{
			"key": "mambuId",
			"value": "KKDI948",
			"type": "default",
			"enabled": true
		},
		{
			"key": "currentdate",
			"value": "",
			"type": "any",
			"enabled": true
		},
		{
			"key": "email",
			"value": "",
			"type": "any",
			"enabled": true
		},
		{
			"key": "dateOfBirth",
			"value": "",
			"type": "any",
			"enabled": true
		},
		{
			"key": "myUUID",
			"value": "",
			"type": "any",
			"enabled": true
		},
		{
			"key": "Token",
			"value": "",
			"type": "any",
			"enabled": true
		},
		{
			"key": "loanAccountsKey",
			"value": "",
			"type": "any",
			"enabled": true
		},
		{
			"key": "payment_encodedKey",
			"value": "",
			"type": "default",
			"enabled": true
		}
	],
	"_postman_variable_scope": "environment",
	"_postman_exported_at": "2023-06-20T05:26:39.055Z",
	"_postman_exported_using": "Postman/10.14.2"
}